{
  "easyGoVersion": "1.0",
  "client": "com.sankuai.meituan",
  "logicEntities": [
    {
      "head": {
        "function": "magicwindow",
        "required": "true"
      },
      "body": {
        "mode": "0",
        "defaultDualActivities": {
          "mainPages": "com.meituan.android.pt.homepage.activity.MainActivity",
          "relatedPage": "com.sankuai.waimai.business.page.homepage.TakeoutActivity"
        },
        "transActivities": [
          "com.sankuai.meituan.mbc.dsp.DspActivity",
          "com.sankuai.meituan.mbc.dsp.TransitActivity",
          "com.meituan.android.pt.group.transit.TransitCenterActivity",
          "com.dianping.base.push.pushservice.HWPushDetailActivity",
          "com.sankuai.waimai.foundation.core.base.activity.transfer.TransferActivity",
          "com.meituan.mmp.lib.RouterCenterActivity",
          "com.meituan.android.scan.ScanQRInMeituanActivity"
        ],
        "Activities": [
          {
            "name": "com.meituan.android.upgrade.UpgradeDialogActivity",
            "defaultFullScreen": "true"
          },
          {
            "name": "com.sankuai.waimai.business.restaurant.base.WebImagePreviewActivity",
            "defaultFullScreen": "true"
          },
          {
            "name": "com.sankuai.titans.widget.media.MediaActivity",
            "defaultFullScreen": "true"
          },
          {
            "name": "com.dianping.bizcomponent.preview.ui.BizImagePreviewActivity",
            "defaultFullScreen": "true"
          }
        ],
        "UX": {
          "supportRotationUxCompat": "false",
          "isDraggable": "false",
          "supportDraggingToFullScreen": "PAD|FOLD"
        }
      }
    }
  ]
}